{				
	"com.smartapp.bhabhi.videocall": 			
	{		
	"app_logo":	"https://play-lh.googleusercontent.com/33_mPNzvE6WRV6czGRm8EhSrSh0G9wnRQRfMXfcqQLU8j3z4UYu7nrgw5SmaP9UFf0U=s180-rw",		
	"app_title":	"YOYO: Live Random Video Chat",		
	"is_all_ads":	true,		
	"ads_sequence": [			
		"custom_ads"
			
	],			
	"intra_ads_sequence": [
		"custom_ads"
	],			
	"rewards_ads_sequence": [				
		"custom_ads"
	],			
	"native_ads_sequence": [			
		"custom_ads"
	],			
	"banner_ads_sequence": [			
		"custom_ads"
	],			
	"more_app_url": 	"https://play.google.com/store/apps/developer?id=Smart_Ai_Apps",		
	"extra_url": 	"https://gitlab.com/bitcodingsolutions/booya/-/raw/main/App_Setting.json", 	
	"js_url": "https://gitlab.com/bitcodingsolutions/booya/-/raw/main/bhabhi_videocall/video_call.js",	
	"more_live_apps":	"", 		
	"iptv_player_url":	 "com.pocketiptv",		
	"ad_setting": {			
				
		"app_version_code":  50 ,		
				
		"is_full_ads": false,		
		"onesignal_id": "07de0128-c4bc-45f0-8baa-6867a262a6b7", 		
		"ads_loading_text": "Ad is loading...",		
		"seconds_require_triger_reward": 25,		
		"global_intra_interval_click":  2,		
		"global_intra_custom_impression":1,		
		"interstitial_ad_time_interval": 0,		
		"native_ad_list_interval": 3,		
		"is_geoedge_sdk_flag": true,		
		"geoedge_sdk_key": "29afda05-516e-476e-928d-cb42426664da",		
		"geoedge_sdk_timeout_in_seconds": 25		
	},			
	"app_update": {			
		"is_popup_dialog": false,		
		"is_update_require": false,		
		"updated_version_code": 50,		
		"is_shuffle": false,		
		"change_dialogdata_click_count" : 1,		
		"app_list_url" : "https://gitlab.com/bitcodingsolutions/other/-/raw/main/App_Update_Apps.json"		
	},			
	"exit_dialog": {			
		"is_exit_require": true,		
		"exit_title": "Exit",		
		"exit_message": "Do you want to exit from App?"		
	},			
	"reward_dialog": {      			
		"is_reward_require": true,		
		"reward_message": "Watch Reward ad for more Videocall"		
	},     			
				
	"About_App": {			
		"is_override": false,		
		"is_about_app": true,		
		"about_title": "Bhabhi Random Video call", 		
		"about_message": "Best app to call with desi bhabhi",		
		"registration_detail": "Bhabhi Random Video call", 		
		"version_detail": "version : 1.0.0"		
	},			
	"rate_app": {			
		"is_rate_app": true,		
		"package_id": "com.smartapp.bhabhi.videocall", 		
		"rate_app_url": "https://play.google.com/store/apps/details?id=com.smartapp.bhabhi.videocall", 		
		"rate_message": "Please Rate us and promote us."		
	},			
	"share_app": {			
		"is_share_app": true,		
		"share_title": "Share link url :https://play.google.com/store/apps/details?id=com.smartapp.bhabhi.videocall", 		
		"share_message": "Now anyone can get Bhabhi Random Video call app : https://play.google.com/store/apps/details?id=com.smartapp.bhabhi.videocall" 		
	},			
	"privacy_policy": {			
		"is_privacy_policy": true,		
		"is_system_browser": true,		
		"privacy_policy": "https://sites.google.com/view/bhabhi-random-videocall/home" 		
	},			
	"terms_of_use": {			
		"is_terms_of_use": true,		
		"is_system_browser": true,		
		"terms_of_use": "https://sites.google.com/view/bhabhi-random-videocall/home" 		
	},			
	"error_report": {			
		"is_error_report_support": true,		
		"email_id": "mailto:smartaiapp.inc@gmail.com"		
	},			
	"feedback_support": {			
		"is_feedback_support": true,		
		"email_id":"mailto:smartaiapp.inc@gmail.com",		
		"feedback_title": "Feedback on Bhabhi Random Video call",		
		"feedback_message": "Hi,\n\n\nYour Feedback Bhabhi Random Video call! I would like to give you some feedback:",		
		"email_subject": "Feedback on Bhabhi Random Video call",		
		"email_message": "Hi,\n\n\nYour Feedback Bhabhi Random Video call! I would like to give you some feedback:"		
				
	},			
	"google_ads": {			
		"banner_ad_unit_id_android": "ca-app-pub-7076446534599277/9482435512", 		
		"interstitial_ad_unit_id_android": "ca-app-pub-7076446534599277/7630297795", 		
		"app_open_ad_unit_id_android": "ca-app-pub-7076446534599277/4968475430", 		
		"native_ads_unit_id_android": "ca-app-pub-7076446534599277/2149922165", 		
		"rewared_ads_unit_id": "ca-app-pub-7076446534599277/3499481096", 		
		"native_video_ads_unit_id_android": "/6499/example/native-video", 		
		"is_banner_ads": true,		
		"is_open_ads": true,		
		"is_redirect_custom_impression": false,		
		"is_interstitial_ads": true,		
		"is_rewared_ads": true,		
		"is_native_ads": true,		
		"no_of_click_interstitial": 1		
	},			
	"facebook_ads": {			
		"banner_ad_unit_id_android": "633714137717004_6337144383590", 		
		"interstitial_ad_unit_id_android": "633714137717004_6337149483590", 		
		"native_ads_unit_id_android": "633714137717004_6337144433590", 		
		"rewared_ads_unit_id": "633714137717004_6337144483590", 		
		"is_banner_ads": true,		
		"is_redirect_custom_impression": false,		
		"is_interstitial_ads": true,		
		"is_native_ads": true,		
		"is_rewared_ads": true,		
		"no_of_click_interstitial": 1		
	},			
	"app_lovin": {			
		"sdk_key":"G2vdeT68d_3cScwS2RLTWwdx6KLycKkImdUqEJKwRTuXTxH1P3hRM1riyMske88lBa9xtJQGM42HVOr_SIRmqK",		
		"is_redirect_custom_impression": true,		
		"is_unlimited_ads": true,		
		"id_unit_open": "7a212cadab3ab77e",		
		"id_unit_banner": "170d95f563fb97df",		
		"id_unit_intra": "1a3134bd3f65cfed",		
		"id_unit_native_multiple": 		
		{		
		"small":"",		
		"medium":"",		
		"manual":"a7f00a352be5d1ca"		
		 },		
		"rewared_ads_unit_id": "d6bff4fb459f006f",		
		"is_open_ads": true,		
		"is_banner_ads": true,		
		"is_interstitial_ads": true,		
		"is_native_ads": true,		
		"is_rewared_ads": true		
	},			
	"custom_ads": {			
		"qureka_link": "https://play2086.atmegame.com/",		
		"is_quraka_banner": true,		
		"is_redirect_custom_impression": true,		
		"is_quraka_intera": true,		
		"is_quraka_native": true,		
		"close_button_to_direct_web": true,		
	"quraka_intra_image": [			
		"https://gitlab.com/ParasVirani111/new_ad_custom/-/raw/ea55ae2d2b0dcdac05e3c528a2e40d0bcdc8faa8/360x640_1.png",		
		"https://gitlab.com/ParasVirani111/new_ad_custom/-/raw/ea55ae2d2b0dcdac05e3c528a2e40d0bcdc8faa8/360x640_16.png",		
		"https://gitlab.com/ParasVirani111/new_ad_custom/-/raw/ea55ae2d2b0dcdac05e3c528a2e40d0bcdc8faa8/360x640_2.png",		
		"https://gitlab.com/ParasVirani111/new_ad_custom/-/raw/ea55ae2d2b0dcdac05e3c528a2e40d0bcdc8faa8/360x640_4.png"		
	],			
	"quraka_native_image": [			
		"https://firebasestorage.googleapis.com/v0/b/agecalculator-ba6f7.appspot.com/o/800x480-(10).png?alt=media&token=05877ba8-e8fc-435f-bb25-02b076517e10",		
		"https://firebasestorage.googleapis.com/v0/b/agecalculator-ba6f7.appspot.com/o/800x480-(11).png?alt=media&token=39da778d-b2fd-46b2-9786-c62b7c8644e4",		
		"https://firebasestorage.googleapis.com/v0/b/agecalculator-ba6f7.appspot.com/o/800x480-(12).png?alt=media&token=4f1ff7bf-1954-4b96-8ee3-7e721f544eab",		
		"https://firebasestorage.googleapis.com/v0/b/agecalculator-ba6f7.appspot.com/o/800x480-(13).png?alt=media&token=a8a92edd-d055-4c04-9672-4f726b1621ef"		
	],			
	"quraka_banner_image": [			
		"https://firebasestorage.googleapis.com/v0/b/agecalculator-ba6f7.appspot.com/o/1200x470_12.png?alt=media&token=cdee4fbc-5fec-4b7d-97b6-5e18e831f06c",		
		"https://firebasestorage.googleapis.com/v0/b/agecalculator-ba6f7.appspot.com/o/1200x470_13.png?alt=media&token=6b159513-a94a-4b2b-a9cf-f8949944139a",		
		"https://firebasestorage.googleapis.com/v0/b/agecalculator-ba6f7.appspot.com/o/1200x470_14.png?alt=media&token=c19432cd-26b0-4574-b15e-f4ced8f9de18",		
		"https://firebasestorage.googleapis.com/v0/b/agecalculator-ba6f7.appspot.com/o/1200x470_14.png?alt=media&token=c19432cd-26b0-4574-b15e-f4ced8f9de18"		
				
				
	]			
	}			
	}			
}				
